Project 1: Exploratory Data Analysis
…
0. Introduction (4 pts)

COVID-19 has emerged at a unique time in our history in which even public health has become politicized. I chose to study the correlation between mask usage and COVID-19 outcomes in an attempt to understand how reduced mask use impacts the number of COVID-19 cases and deaths per U.S. county. The COVID-19 data was collected by the New York Times and includes the total number of cases and deaths as of October 4. The mask frequency survey was also published by the New York Times and was collected through online interviews by the survey firm Dynata in the month of July. Lastly, the population data was published by the U.S. Census Bureau and includes 2019 population estimates per county.

I expect population size to strongly correlate with the number of COVID-19 cases and deaths. I also predict that counties that have reported higher frequencies in mask use will have better health outcomes during this pandemic, with less people contracting the virus and, as a result, less fatalities.

1. Tidying: Rearranging Wide/Long (8 pts)

mask_usage %>% pivot_longer(2:6, names_to = "mask_use", values_to = "frequency")

## # A tibble: 15,710 x 3
##    COUNTYFP mask_use   frequency
##    <chr>    <chr>          <dbl>
##  1 01001    NEVER          0.053
##  2 01001    RARELY         0.074
##  3 01001    SOMETIMES      0.134
##  4 01001    FREQUENTLY     0.295
##  5 01001    ALWAYS         0.444
##  6 01003    NEVER          0.083
##  7 01003    RARELY         0.059
##  8 01003    SOMETIMES      0.098
##  9 01003    FREQUENTLY     0.323
## 10 01003    ALWAYS         0.436
## # … with 15,700 more rows

mask_usage %>% pivot_longer(2:6, names_to = "mask_use", values_to = "frequency") %>% 
    pivot_wider(names_from = "mask_use", values_from = "frequency")

## # A tibble: 3,142 x 6
##    COUNTYFP NEVER RARELY SOMETIMES FREQUENTLY ALWAYS
##    <chr>    <dbl>  <dbl>     <dbl>      <dbl>  <dbl>
##  1 01001    0.053  0.074     0.134      0.295  0.444
##  2 01003    0.083  0.059     0.098      0.323  0.436
##  3 01005    0.067  0.121     0.12       0.201  0.491
##  4 01007    0.02   0.034     0.096      0.278  0.572
##  5 01009    0.053  0.114     0.18       0.194  0.459
##  6 01011    0.031  0.04      0.144      0.286  0.5  
##  7 01013    0.102  0.053     0.257      0.137  0.451
##  8 01015    0.152  0.108     0.13       0.167  0.442
##  9 01017    0.117  0.037     0.15       0.136  0.56 
## 10 01019    0.135  0.027     0.161      0.158  0.52 
## # … with 3,132 more rows
…
state_covid %>% summarize(`Correlation Between Mask Use and Case Fatality Ratio` = cor(avg_score, 
    case_fatality_ratio))

## # A tibble: 1 x 1
##   `Correlation Between Mask Use and Case Fatality Ratio`
##                                                    <dbl>
## 1                                                     NA

state_covid %>% arrange(-est_pop)

## # A tibble: 56 x 7
##    state          avg_score sd_score  est_pop  cases deaths case_fatality_ratio
##    <chr>              <dbl>    <dbl>    <dbl>  <dbl>  <dbl>               <dbl>
##  1 California          4.49    0.215 39512223 831494  16122              0.0194
##  2 Texas              NA      NA     28995881     NA     NA             NA     
##  3 Pennsylvania        4.41    0.235 12801989 166270   8271              0.0497
##  4 Ohio                3.81    0.297 11689100 157966   4925              0.0312
##  5 North Carolina      4.25    0.226 10488084 217049   3647              0.0168
##  6 Arizona             4.30    0.257  7278717 220403   5705              0.0259
##  7 Indiana             3.87    0.242  6732219 126414   3669              0.0290
##  8 Colorado            4.19    0.332  5758736  72929   2071              0.0284
##  9 South Carolina      3.99    0.251  5148714 150891   3442              0.0228
## 10 Alabama             3.92    0.242  4903185 158380   2558              0.0162
## # … with 46 more rows
…
